<?xml version="1.0" encoding="UTF-8" standalone="no"?>
<!-- Created with Inkscape (http://www.inkscape.org/) -->

<svg
   version="1.1"
   id="svg1"
   width="282.00784"
   height="366.48846"
   viewBox="0 0 282.00784 366.48846"
   sodipodi:docname="transparency-groups.pdf"
   xmlns:inkscape="http://www.inkscape.org/namespaces/inkscape"
   xmlns:sodipodi="http://sodipodi.sourceforge.net/DTD/sodipodi-0.dtd"
   xmlns="http://www.w3.org/2000/svg"
   xmlns:svg="http://www.w3.org/2000/svg">
  <defs
     id="defs1" />
  <sodipodi:namedview
     id="namedview1"
     pagecolor="#ffffff"
     bordercolor="#000000"
     borderopacity="0.25"
     inkscape:showpageshadow="2"
     inkscape:pageopacity="0.0"
     inkscape:pagecheckerboard="0"
     inkscape:deskcolor="#d1d1d1">
    <inkscape:page
       x="0"
       y="0"
       inkscape:label="1"
       id="page1"
       width="282.00784"
       height="366.48846"
       margin="0"
       bleed="0" />
  </sodipodi:namedview>
  <g
     id="g1"
     inkscape:groupmode="layer"
     inkscape:label="1">
    <g
       opacity="0.7"
       id="g4">
      <g
         opacity="0.7"
         id="g3">
        <g
           opacity="0.7"
           id="g2">
          <path
             d="m 110.199,62.617 37.778,65.43 L 86.133,163.754 48.355,98.32 Z"
             style="fill:#c01c28;fill-opacity:1;fill-rule:nonzero;stroke:none"
             transform="scale(1.3333333)"
             opacity="0.7"
             id="path1" />
          <path
             d="m 158.082,122.602 53.426,53.425 -50.5,50.496 -53.422,-53.421 z"
             style="fill:#c01c28;fill-opacity:1;fill-rule:nonzero;stroke:none"
             transform="scale(1.3333333)"
             id="path2" />
        </g>
        <path
           d="m 35.707,143.125 65.43,37.777 L 65.43,242.75 0,204.973 Z"
           style="fill:#c01c28;fill-opacity:1;fill-rule:nonzero;stroke:none"
           transform="scale(1.3333333)"
           id="path3" />
      </g>
      <path
         d="m 115.984,186.332 72.981,19.555 -18.485,68.98 -72.976,-19.555 z"
         style="fill:#c01c28;fill-opacity:1;fill-rule:nonzero;stroke:none"
         transform="scale(1.3333333)"
         id="path4" />
    </g>
    <path
       id="path5"
       d="M 90.445,0 163.422,19.555 144.941,88.535 71.961,68.98 Z"
       style="fill:#c01c28;fill-opacity:1;fill-rule:nonzero;stroke:none"
       transform="scale(1.3333333)" />
  </g>
</svg>
